Using dropout • dropout
…
For example, in the “flying” dataset, the final survey-related item
is stored in the “location_census_region” column. Following this, the
“survey_type” column contains supplementary survey information. Many
datasets incorporate similar non-survey-related data, and it’s crucial
to consider such cases. If the last column is left unspecified, the
drop_summary function will assume that only survey-related
items are present.

To gain a comprehensive overview of the dropout patterns within your
dataset, consider the following code snippet:

drop_summary(flying, "location_census_region")
#> # A tibble: 27 × 8
#>    column_name           dropout drop_rate drop_na section_na single_na missing
#>    <chr>                   <int>     <dbl>   <dbl>      <dbl>     <dbl>   <dbl>
#>  1 respondent_id               0      0          0          0         0       0
#>  2 travel_frequency            0      0          0          0         0       0
#>  3 seat_recline               18      0.02      18        164         0     182
#>  4 height                      0      0.02      18        164        12     194
#>  5 children_under_18           1      0.02      19        164         6     189
#>  6 two_armrests                1      0.02      20        164         0     184
#>  7 middle_armrest              0      0.02      20        164         0     184
#>  8 window_shade                0      0.02      20        164         0     184
#>  9 moving_to_unsold_seat       1      0.02      21        164         0     185
#> 10 talking_to_seatmate         0      0.02      21        164         0     185
#> # ℹ 17 more rows
#> # ℹ 1 more variable: completion_rate <dbl>
…
